[
	{
		"q": "Focused, hard work is the real key to success.",
		"a": "John Carmack",
		"c": "46",
		"h": "<blockquote>&ldquo;Focused, hard work is the real key to success.&rdquo; &mdash; <footer>John Carmack</footer></blockquote>"
	},
	{
		"q": "Confidence is contagious. So is lack of confidence.",
		"a": "Vince Lombardi",
		"c": "51",
		"h": "<blockquote>&ldquo;Confidence is contagious. So is lack of confidence.&rdquo; &mdash; <footer>Vince Lombardi</footer></blockquote>"
	},
	{
		"q": "The universe doesn't allow perfection.",
		"a": "Stephen Hawking",
		"c": "38",
		"h": "<blockquote>&ldquo;The universe doesn't allow perfection.&rdquo; &mdash; <footer>Stephen Hawking</footer></blockquote>"
	},
	{
		"q": "Be regular and orderly in your life, so that you may be violent and original in your work.",
		"a": "Gustave Flaubert",
		"c": "90",
		"h": "<blockquote>&ldquo;Be regular and orderly in your life, so that you may be violent and original in your work.&rdquo; &mdash; <footer>Gustave Flaubert</footer></blockquote>"
	},
	{
		"q": "Don't wait for extraordinary opportunities. Seize common occasions and make them great.",
		"a": "Orison Swett Marden",
		"c": "87",
		"h": "<blockquote>&ldquo;Don't wait for extraordinary opportunities. Seize common occasions and make them great.&rdquo; &mdash; <footer>Orison Swett Marden</footer></blockquote>"
	},
	{
		"q": "A dream you dream alone is only a dream. A dream you dream together is reality.",
		"a": "Yoko Ono",
		"c": "79",
		"h": "<blockquote>&ldquo;A dream you dream alone is only a dream. A dream you dream together is reality.&rdquo; &mdash; <footer>Yoko Ono</footer></blockquote>"
	},
	{
		"q": "Life is essentially an endless series of problems. The solution to one problem is merely the creation of another.",
		"a": "Mark Manson",
		"c": "113",
		"h": "<blockquote>&ldquo;Life is essentially an endless series of problems. The solution to one problem is merely the creation of another.&rdquo; &mdash; <footer>Mark Manson</footer></blockquote>"
	},
	{
		"q": "People rarely succeed unless they have fun in what they are doing.",
		"a": "Dale Carnegie",
		"c": "66",
		"h": "<blockquote>&ldquo;People rarely succeed unless they have fun in what they are doing.&rdquo; &mdash; <footer>Dale Carnegie</footer></blockquote>"
	},
	{
		"q": "Whatever you think the world is withholding from you, you are withholding from the world.",
		"a": "Eckhart Tolle",
		"c": "89",
		"h": "<blockquote>&ldquo;Whatever you think the world is withholding from you, you are withholding from the world.&rdquo; &mdash; <footer>Eckhart Tolle</footer></blockquote>"
	},
	{
		"q": "Take responsibility of your own happiness, never put it in other people's hands.",
		"a": "Roy T. Bennett",
		"c": "80",
		"h": "<blockquote>&ldquo;Take responsibility of your own happiness, never put it in other people's hands.&rdquo; &mdash; <footer>Roy T. Bennett</footer></blockquote>"
	},
	{
		"q": "It is amazing what you can accomplish if you do not care who gets the credit.",
		"a": "Harry S. Truman",
		"c": "77",
		"h": "<blockquote>&ldquo;It is amazing what you can accomplish if you do not care who gets the credit.&rdquo; &mdash; <footer>Harry S. Truman</footer></blockquote>"
	},
	{
		"q": "The swift wind of compromise is a lot more devastating than the sudden jolt of misfortune. ",
		"a": "Charles Swindoll",
		"c": "91",
		"h": "<blockquote>&ldquo;The swift wind of compromise is a lot more devastating than the sudden jolt of misfortune. &rdquo; &mdash; <footer>Charles Swindoll</footer></blockquote>"
	},
	{
		"q": "The only reason to be alive is to enjoy it.",
		"a": "Rita Mae Brown",
		"c": "43",
		"h": "<blockquote>&ldquo;The only reason to be alive is to enjoy it.&rdquo; &mdash; <footer>Rita Mae Brown</footer></blockquote>"
	},
	{
		"q": "Time is a game played beautifully by children.",
		"a": "Heraclitus",
		"c": "46",
		"h": "<blockquote>&ldquo;Time is a game played beautifully by children.&rdquo; &mdash; <footer>Heraclitus</footer></blockquote>"
	},
	{
		"q": "You can, you should, and if you're brave enough to start, you will.",
		"a": "Stephen King",
		"c": "67",
		"h": "<blockquote>&ldquo;You can, you should, and if you're brave enough to start, you will.&rdquo; &mdash; <footer>Stephen King</footer></blockquote>"
	},
	{
		"q": "If you try to micromanage yourself all you're going to do is make yourself miserable.",
		"a": "Naval Ravikant",
		"c": "85",
		"h": "<blockquote>&ldquo;If you try to micromanage yourself all you're going to do is make yourself miserable.&rdquo; &mdash; <footer>Naval Ravikant</footer></blockquote>"
	},
	{
		"q": "The problem happens when we have multiple desires. When we have fuzzy desires. When we want to do ten different things and we're not clear about which is the one we care about.",
		"a": "Naval Ravikant",
		"c": "176",
		"h": "<blockquote>&ldquo;The problem happens when we have multiple desires. When we have fuzzy desires. When we want to do ten different things and we're not clear about which is the one we care about.&rdquo; &mdash; <footer>Naval Ravikant</footer></blockquote>"
	},
	{
		"q": "Attitude, not aptitude, determines altitude.  ",
		"a": "Zig Ziglar",
		"c": "46",
		"h": "<blockquote>&ldquo;Attitude, not aptitude, determines altitude.  &rdquo; &mdash; <footer>Zig Ziglar</footer></blockquote>"
	},
	{
		"q": "Preoccupied with a single leaf you won't see the tree.",
		"a": "Unknown",
		"c": "54",
		"h": "<blockquote>&ldquo;Preoccupied with a single leaf you won't see the tree.&rdquo; &mdash; <footer>Unknown</footer></blockquote>"
	},
	{
		"q": "You use a glass mirror to see your face; you use works of art to see your soul.",
		"a": "George Bernard Shaw",
		"c": "79",
		"h": "<blockquote>&ldquo;You use a glass mirror to see your face; you use works of art to see your soul.&rdquo; &mdash; <footer>George Bernard Shaw</footer></blockquote>"
	},
	{
		"q": "Life should be touched, not strangled.  ",
		"a": "Ray Bradbury",
		"c": "40",
		"h": "<blockquote>&ldquo;Life should be touched, not strangled.  &rdquo; &mdash; <footer>Ray Bradbury</footer></blockquote>"
	},
	{
		"q": "A mistake is only an error, it becomes a mistake when you fail to correct it.",
		"a": "John Lennon",
		"c": "77",
		"h": "<blockquote>&ldquo;A mistake is only an error, it becomes a mistake when you fail to correct it.&rdquo; &mdash; <footer>John Lennon</footer></blockquote>"
	},
	{
		"q": "Those who dream by day are cognizant of many things which escape those who dream only by night.",
		"a": "Vincent van Gogh",
		"c": "95",
		"h": "<blockquote>&ldquo;Those who dream by day are cognizant of many things which escape those who dream only by night.&rdquo; &mdash; <footer>Vincent van Gogh</footer></blockquote>"
	},
	{
		"q": "I would rather be hated for who I am than loved for who I'm not.  ",
		"a": "Wayne Dyer",
		"c": "66",
		"h": "<blockquote>&ldquo;I would rather be hated for who I am than loved for who I'm not.  &rdquo; &mdash; <footer>Wayne Dyer</footer></blockquote>"
	},
	{
		"q": "The road to success is always under construction..",
		"a": "Lily Tomlin",
		"c": "50",
		"h": "<blockquote>&ldquo;The road to success is always under construction..&rdquo; &mdash; <footer>Lily Tomlin</footer></blockquote>"
	},
	{
		"q": "I can never decide whether my dreams are the result of my thoughts or my thoughts the result of my dreams.",
		"a": "D. H. Lawrence",
		"c": "106",
		"h": "<blockquote>&ldquo;I can never decide whether my dreams are the result of my thoughts or my thoughts the result of my dreams.&rdquo; &mdash; <footer>D. H. Lawrence</footer></blockquote>"
	},
	{
		"q": "It is not fair to ask of others what you are not willing to do yourself.",
		"a": "Eleanor Roosevelt",
		"c": "72",
		"h": "<blockquote>&ldquo;It is not fair to ask of others what you are not willing to do yourself.&rdquo; &mdash; <footer>Eleanor Roosevelt</footer></blockquote>"
	},
	{
		"q": "Don't let someone elses. opinion become your reality.",
		"a": "Les Brown",
		"c": "53",
		"h": "<blockquote>&ldquo;Don't let someone elses. opinion become your reality.&rdquo; &mdash; <footer>Les Brown</footer></blockquote>"
	},
	{
		"q": "The more knowledge you have, the more you're free to rely on your instincts.",
		"a": "Arnold Schwarzenegger",
		"c": "76",
		"h": "<blockquote>&ldquo;The more knowledge you have, the more you're free to rely on your instincts.&rdquo; &mdash; <footer>Arnold Schwarzenegger</footer></blockquote>"
	},
	{
		"q": "The chief enemy of creativity is good sense.",
		"a": "Pablo Picasso",
		"c": "44",
		"h": "<blockquote>&ldquo;The chief enemy of creativity is good sense.&rdquo; &mdash; <footer>Pablo Picasso</footer></blockquote>"
	},
	{
		"q": "What we dwell on is who we become.",
		"a": "Oprah Winfrey",
		"c": "34",
		"h": "<blockquote>&ldquo;What we dwell on is who we become.&rdquo; &mdash; <footer>Oprah Winfrey</footer></blockquote>"
	},
	{
		"q": "Don't try to be young. Just open your mind. Stay interested in stuff.",
		"a": "Betty White",
		"c": "69",
		"h": "<blockquote>&ldquo;Don't try to be young. Just open your mind. Stay interested in stuff.&rdquo; &mdash; <footer>Betty White</footer></blockquote>"
	},
	{
		"q": "Teachers open the door. You enter by yourself. ",
		"a": "Chinese Proverb",
		"c": "47",
		"h": "<blockquote>&ldquo;Teachers open the door. You enter by yourself. &rdquo; &mdash; <footer>Chinese Proverb</footer></blockquote>"
	},
	{
		"q": "Beginning today, treat everyone you meet as if they were going to be dead by midnight. Your life will never be the same again.",
		"a": "Og Mandino",
		"c": "126",
		"h": "<blockquote>&ldquo;Beginning today, treat everyone you meet as if they were going to be dead by midnight. Your life will never be the same again.&rdquo; &mdash; <footer>Og Mandino</footer></blockquote>"
	},
	{
		"q": "High thoughts must have high language.",
		"a": "Aristophanes",
		"c": "38",
		"h": "<blockquote>&ldquo;High thoughts must have high language.&rdquo; &mdash; <footer>Aristophanes</footer></blockquote>"
	},
	{
		"q": "You have brains in your head. You have feet in your shoes. You can steer yourself any direction you choose.",
		"a": "Dr. Seuss",
		"c": "107",
		"h": "<blockquote>&ldquo;You have brains in your head. You have feet in your shoes. You can steer yourself any direction you choose.&rdquo; &mdash; <footer>Dr. Seuss</footer></blockquote>"
	},
	{
		"q": "Courage is the price that life exacts for granting peace.",
		"a": "Amelia Earhart",
		"c": "57",
		"h": "<blockquote>&ldquo;Courage is the price that life exacts for granting peace.&rdquo; &mdash; <footer>Amelia Earhart</footer></blockquote>"
	},
	{
		"q": "Courage Is a Love Affair with the Unknown",
		"a": "Osho",
		"c": "41",
		"h": "<blockquote>&ldquo;Courage Is a Love Affair with the Unknown&rdquo; &mdash; <footer>Osho</footer></blockquote>"
	},
	{
		"q": "Growth comes at the point of resistance.",
		"a": "Josh Waitzkin",
		"c": "40",
		"h": "<blockquote>&ldquo;Growth comes at the point of resistance.&rdquo; &mdash; <footer>Josh Waitzkin</footer></blockquote>"
	},
	{
		"q": "As mortals, we're ruled by conditions, not by ourselves.",
		"a": "Bodhidharma",
		"c": "56",
		"h": "<blockquote>&ldquo;As mortals, we're ruled by conditions, not by ourselves.&rdquo; &mdash; <footer>Bodhidharma</footer></blockquote>"
	},
	{
		"q": "No one can confidently say that he will still be living tomorrow.",
		"a": "Euripides",
		"c": "65",
		"h": "<blockquote>&ldquo;No one can confidently say that he will still be living tomorrow.&rdquo; &mdash; <footer>Euripides</footer></blockquote>"
	},
	{
		"q": "Be true to yourself, help others, make each day your masterpiece",
		"a": "John Wooden",
		"c": "64",
		"h": "<blockquote>&ldquo;Be true to yourself, help others, make each day your masterpiece&rdquo; &mdash; <footer>John Wooden</footer></blockquote>"
	},
	{
		"q": "The journey, not the destination matters.",
		"a": "T.S. Eliot",
		"c": "41",
		"h": "<blockquote>&ldquo;The journey, not the destination matters.&rdquo; &mdash; <footer>T.S. Eliot</footer></blockquote>"
	},
	{
		"q": "If you find you are not valued and appreciated, then shift your attention to places where you will be valued and appreciated.",
		"a": "Celestine Chua",
		"c": "125",
		"h": "<blockquote>&ldquo;If you find you are not valued and appreciated, then shift your attention to places where you will be valued and appreciated.&rdquo; &mdash; <footer>Celestine Chua</footer></blockquote>"
	},
	{
		"q": "Life goes by very fast. And the worst thing in life that you can have is a job that you hate, and have no energy and creativity in.",
		"a": "Robert Greene",
		"c": "131",
		"h": "<blockquote>&ldquo;Life goes by very fast. And the worst thing in life that you can have is a job that you hate, and have no energy and creativity in.&rdquo; &mdash; <footer>Robert Greene</footer></blockquote>"
	},
	{
		"q": "I have lost friends, some by death...others by sheer inability to cross the street.",
		"a": "Virginia Woolf",
		"c": "83",
		"h": "<blockquote>&ldquo;I have lost friends, some by death...others by sheer inability to cross the street.&rdquo; &mdash; <footer>Virginia Woolf</footer></blockquote>"
	},
	{
		"q": "The only limits in our life are those we impose on ourselves.",
		"a": "Bob Proctor",
		"c": "61",
		"h": "<blockquote>&ldquo;The only limits in our life are those we impose on ourselves.&rdquo; &mdash; <footer>Bob Proctor</footer></blockquote>"
	},
	{
		"q": "One small positive thought can change your whole day.",
		"a": "Zig Ziglar",
		"c": "53",
		"h": "<blockquote>&ldquo;One small positive thought can change your whole day.&rdquo; &mdash; <footer>Zig Ziglar</footer></blockquote>"
	},
	{
		"q": "Sorrow is how we learn to love.",
		"a": "Rita Mae Brown",
		"c": "31",
		"h": "<blockquote>&ldquo;Sorrow is how we learn to love.&rdquo; &mdash; <footer>Rita Mae Brown</footer></blockquote>"
	},
	{
		"q": "The pursuit of mastery bears gifts. ",
		"a": "Gary Keller",
		"c": "36",
		"h": "<blockquote>&ldquo;The pursuit of mastery bears gifts. &rdquo; &mdash; <footer>Gary Keller</footer></blockquote>"
	}
]